lab2/vivado_lab2/vivado_lab2.sim/sim_1/behav/xsim/func_tb.vcd
$date
   Tue Oct 21 14:10:07 2025
$end
$version
  2019.1
$end
$timescale
  1ps
$end
$scope module func_tb $end
$var reg 1 ! clk $end
$var reg 1 " rst $end
$var reg 1 # start $end
$var reg 8 $ a [7:0] $end
$var reg 8 % b [7:0] $end
$var wire 1 & busy $end
$var wire 1 ' valid $end
$var wire 24 ( y [23:0] $end
$var integer 32 ) cycle $end
$scope module dut $end
$var wire 1 * clk $end
$var wire 1 + rst $end
$var wire 1 , start $end
$var wire 8 - a [7:0] $end
$var wire 8 . b [7:0] $end
$var reg 1 / busy $end
$var reg 1 0 valid $end
$var reg 24 1 y [23:0] $end
$var reg 1 2 m_start $end
$var wire 1 3 m_busy $end
$var wire 1 4 m_done $end
$var reg 16 5 m_A [15:0] $end
$var reg 8 6 m_B [7:0] $end
$var wire 24 7 m_Y [23:0] $end
$var reg 8 8 a_r [7:0] $end
$var reg 8 9 b_r [7:0] $end
$var reg 24 : ab24 [23:0] $end
$var reg 24 ; a3_24 [23:0] $end
$var reg 16 < a2_16 [15:0] $end
$var reg 3 = st [2:0] $end
$var parameter 3 > S_IDLE [2:0] $end
$var parameter 3 ? S_AB [2:0] $end
$var parameter 3 @ S_A2 [2:0] $end
$var parameter 3 A S_A3 [2:0] $end
$var parameter 3 B S_ADD [2:0] $end
$var parameter 3 C S_DONE [2:0] $end
$scope module mul $end
$var wire 1 * clk $end
$var wire 1 + rst $end
$var wire 1 D start $end
$var wire 16 E A [15:0] $end
$var wire 8 F B [7:0] $end
$var reg 1 G busy $end
$var reg 1 H done $end
$var reg 24 I Y [23:0] $end
$var reg 24 J a_ext [23:0] $end
$var reg 8 K b_reg [7:0] $end
$var reg 24 L acc [23:0] $end
$var reg 8 M cnt [7:0] $end
$var wire 24 N add_term [23:0] $end
$var wire 24 O acc_next [23:0] $end
$var reg 1 P state $end
$var parameter 32 Q WA [31:0] $end
$var parameter 32 R WB [31:0] $end
$var parameter 32 S WOUT [31:0] $end
$var parameter 0 T IDLE $end
$var parameter 0 U WORK $end
$upscope $end
$upscope $end
$scope task run_case $end
$var reg 8 V ta [7:0] $end
$var reg 8 W tb [7:0] $end
$var reg 24 X expected [23:0] $end
$var reg 256 Y name [255:0] $end
$var integer 32 Z c_start $end
$var integer 32 [ c_done $end
$var integer 32 \ lat $end
$upscope $end
$upscope $end
$enddefinitions $end
#0
$dumpvars
0!
1"
0#
b0 $
b0 %
x&
x'
bx (
b0 )
0*
1+
0,
b0 -
b0 .
x/
x0
bx 1
x2
x3
x4
bx 5
bx 6
bx 7
bx 8
bx 9
bx :
bx ;
bx <
bx =
b0 >
b1 ?
b10 @
b11 A
b100 B
b101 C
xD
bx E
bx F
xG
xH
bx I
bx J
bx K
bx L
bx M
bx N
bx O
xP
b10000 Q
b1000 R
b11000 S
0T
1U
bx V
bx W
bx X
bx Y
bx Z
bx [
bx \
$end
#5000
1!
0&
0'
b0 (
b1 )
1*
0/
00
b0 1
02
03
04
b0 5
b0 6
b0 7
b0 8
b0 9
b0 :
b0 ;
b0 <
b0 =
0D
b0 E
b0 F
0G
0H
b0 I
b0 J
b0 K
b0 L
b0 M
b0 N
b0 O
0P
#10000
0!
0*
#15000
1!
b10 )
1*
#20000
0!
0*
#25000
1!
b11 )
1*
#30000
0!
0*
#35000
1!
b100 )
1*
#40000
0!
0*
#45000
1!
0"
b101 )
1*
0+
b11 V
b100 W
b100111 X
b101001101001101010000010100110001001100 Y
#50000
0!
1#
b11 $
b100 %
0*
1,
b11 -
b100 .
b101 Z
#55000
1!
1&
b110 )
1*
1/
12
b11 5
b100 6
b11 8
b100 9
b1 =
1D
b11 E
b100 F
#60000
0!
0#
0*
0,
#65000
1!
b111 )
1*
02
13
0D
1G
b11 J
b100 K
b0 N
1P
#70000
0!
0*
#75000
1!
b1000 )
1*
b110 J
b10 K
b1 M
b0 N
#80000
0!
0*
#85000
1!
b1001 )
1*
b1100 J
b1 K
b10 M
b1100 N
b1100 O
#90000
0!
0*
#95000
1!
b1010 )
1*
b11000 J
b0 K
b1100 L
b11 M
b0 N
b1100 O
#100000
0!
0*
#105000
1!
b1011 )
1*
b110000 J
b100 M
b0 N
#110000
0!
0*
#115000
1!
b1100 )
1*
b1100000 J
b101 M
b0 N
#120000
0!
0*
#125000
1!
b1101 )
1*
b11000000 J
b110 M
b0 N
#130000
0!
0*
#135000
1!
b1110 )
1*
b110000000 J
b111 M
b0 N
#140000
0!
0*
#145000
1!
b1111 )
1*
03
14
b1100 7
0G
1H
b1100 I
b1100000000 J
b1000 M
b0 N
0P
#150000
0!
0*
#155000
1!
b10000 )
1*
12
04
b11 6
b1100 :
b10 =
1D
b11 F
0H
#160000
0!
0*
#165000
1!
b10001 )
1*
02
13
0D
1G
b11 J
b11 K
b0 L
b0 M
b11 N
b11 O
1P
#170000
0!
0*
#175000
1!
b10010 )
1*
b110 J
b1 K
b11 L
b1 M
b110 N
b1001 O
#180000
0!
0*
#185000
1!
b10011 )
1*
b1100 J
b0 K
b1001 L
b10 M
b0 N
b1001 O
#190000
0!
0*
#195000
1!
b10100 )
1*
b11000 J
b11 M
b0 N
#200000
0!
0*
#205000
1!
b10101 )
1*
b110000 J
b100 M
b0 N
#210000
0!
0*
#215000
1!
b10110 )
1*
b1100000 J
b101 M
b0 N
#220000
0!
0*
#225000
1!
b10111 )
1*
b11000000 J
b110 M
b0 N
#230000
0!
0*
#235000
1!
b11000 )
1*
b110000000 J
b111 M
b0 N
#240000
0!
0*
#245000
1!
b11001 )
1*
03
14
b1001 7
0G
1H
b1001 I
b1100000000 J
b1000 M
b0 N
0P
#250000
0!
0*
#255000
1!
b11010 )
1*
12
04
b1001 5
b1001 <
b11 =
1D
b1001 E
0H
#260000
0!
0*
#265000
1!
b11011 )
1*
02
13
0D
1G
b1001 J
b11 K
b0 L
b0 M
b1001 N
1P
#270000
0!
0*
#275000
1!
b11100 )
1*
b10010 J
b1 K
b1001 L
b1 M
b10010 N
b11011 O
#280000
0!
0*
#285000
1!
b11101 )
1*
b100100 J
b0 K
b11011 L
b10 M
b0 N
b11011 O
#290000
0!
0*
#295000
1!
b11110 )
1*
b1001000 J
b11 M
b0 N
#300000
0!
0*
#305000
1!
b11111 )
1*
b10010000 J
b100 M
b0 N
#310000
0!
0*
#315000
1!
b100000 )
1*
b100100000 J
b101 M
b0 N
#320000
0!
0*
#325000
1!
b100001 )
1*
b1001000000 J
b110 M
b0 N
#330000
0!
0*
#335000
1!
b100010 )
1*
b10010000000 J
b111 M
b0 N
#340000
0!
0*
#345000
1!
b100011 )
1*
03
14
b11011 7
0G
1H
b11011 I
b100100000000 J
b1000 M
b0 N
0P
#350000
0!
0*
#355000
1!
b100100 )
1*
04
b11011 ;
b100 =
0H
#360000
0!
0*
#365000
1!
b100111 (
b100101 )
1*
b100111 1
b101 =
#370000
0!
0*
#375000
1!
0&
1'
b100110 )
1*
0/
10
b0 =
b100110 [
b100001 \
#380000
0!
0*
#385000
1!
0'
b100111 )
1*
00
#390000
0!
0*
#395000
1!
b101000 )
1*
b11111111 V
b11111111 W
b111111100000000100000000 X
b10011010100000101011000 Y
#400000
0!
1#
b11111111 $
b11111111 %
0*
1,
b11111111 -
b11111111 .
b101000 Z
#405000
1!
1&
b101001 )
1*
1/
12
b11111111 5
b11111111 6
b11111111 8
b11111111 9
b1 =
1D
b11111111 E
b11111111 F
#410000
0!
0#
0*
0,
#415000
1!
b101010 )
1*
02
13
0D
1G
b11111111 J
b11111111 K
b0 L
b0 M
b11111111 N
b11111111 O
1P
#420000
0!
0*
#425000
1!
b101011 )
1*
b111111110 J
b1111111 K
b11111111 L
b1 M
b111111110 N
b1011111101 O
#430000
0!
0*
#435000
1!
b101100 )
1*
b1111111100 J
b111111 K
b1011111101 L
b10 M
b1111111100 N
b11011111001 O
#440000
0!
0*
#445000
1!
b101101 )
1*
b11111111000 J
b11111 K
b11011111001 L
b11 M
b11111111000 N
b111011110001 O
#450000
0!
0*
#455000
1!
b101110 )
1*
b111111110000 J
b1111 K
b111011110001 L
b100 M
b111111110000 N
b1111011100001 O
#460000
0!
0*
#465000
1!
b101111 )
1*
b1111111100000 J
b111 K
b1111011100001 L
b101 M
b1111111100000 N
b11111011000001 O
#470000
0!
0*
#475000
1!
b110000 )
1*
b11111111000000 J
b11 K
b11111011000001 L
b110 M
b11111111000000 N
b111111010000001 O
#480000
0!
0*
#485000
1!
b110001 )
1*
b111111110000000 J
b1 K
b111111010000001 L
b111 M
b111111110000000 N
b1111111000000001 O
#490000
0!
0*
#495000
1!
b110010 )
1*
03
14
b1111111000000001 7
0G
1H
b1111111000000001 I
b1111111100000000 J
b0 K
b1111111000000001 L
b1000 M
b0 N
b1111111000000001 O
0P
#500000
0!
0*
#505000
1!
b110011 )
1*
12
04
b1111111000000001 :
b10 =
1D
0H
#510000
0!
0*
#515000
1!
b110100 )
1*
02
13
0D
1G
b11111111 J
b11111111 K
b0 L
b0 M
b11111111 N
b11111111 O
1P
#520000
0!
0*
#525000
1!
b110101 )
1*
b111111110 J
b1111111 K
b11111111 L
b1 M
b111111110 N
b1011111101 O
#530000
0!
0*
#535000
1!
b110110 )
1*
b1111111100 J
b111111 K
b1011111101 L
b10 M
b1111111100 N
b11011111001 O
#540000
0!
0*
#545000
1!
b110111 )
1*
b11111111000 J
b11111 K
b11011111001 L
b11 M
b11111111000 N
b111011110001 O
#550000
0!
0*
#555000
1!
b111000 )
1*
b111111110000 J
b1111 K
b111011110001 L
b100 M
b111111110000 N
b1111011100001 O
#560000
0!
0*
#565000
1!
b111001 )
1*
b1111111100000 J
b111 K
b1111011100001 L
b101 M
b1111111100000 N
b11111011000001 O
#570000
0!
0*
#575000
1!
b111010 )
1*
b11111111000000 J
b11 K
b11111011000001 L
b110 M
b11111111000000 N
b111111010000001 O
#580000
0!
0*
#585000
1!
b111011 )
1*
b111111110000000 J
b1 K
b111111010000001 L
b111 M
b111111110000000 N
b1111111000000001 O
#590000
0!
0*
#595000
1!
b111100 )
1*
03
14
0G
1H
b1111111100000000 J
b0 K
b1111111000000001 L
b1000 M
b0 N
b1111111000000001 O
0P
#600000
0!
0*
#605000
1!
b111101 )
1*
12
04
b1111111000000001 5
b1111111000000001 <
b11 =
1D
b1111111000000001 E
0H
#610000
0!
0*
#615000
1!
b111110 )
1*
02
13
0D
1G
b1111111000000001 J
b11111111 K
b0 L
b0 M
b1111111000000001 N
1P
#620000
0!
0*
#625000
1!
b111111 )
1*
b11111110000000010 J
b1111111 K
b1111111000000001 L
b1 M
b11111110000000010 N
b101111101000000011 O
#630000
0!
0*
#635000
1!
b1000000 )
1*
b111111100000000100 J
b111111 K
b101111101000000011 L
b10 M
b111111100000000100 N
b1101111001000000111 O
#640000
0!
0*
#645000
1!
b1000001 )
1*
b1111111000000001000 J
b11111 K
b1101111001000000111 L
b11 M
b1111111000000001000 N
b11101110001000001111 O
#650000
0!
0*
#655000
1!
b1000010 )
1*
b11111110000000010000 J
b1111 K
b11101110001000001111 L
b100 M
b11111110000000010000 N
b111101100001000011111 O
#660000
0!
0*
#665000
1!
b1000011 )
1*
b111111100000000100000 J
b111 K
b111101100001000011111 L
b101 M
b111111100000000100000 N
b1111101000001000111111 O
#670000
0!
0*
#675000
1!
b1000100 )
1*
b1111111000000001000000 J
b11 K
b1111101000001000111111 L
b110 M
b1111111000000001000000 N
b11111100000001001111111 O
#680000
0!
0*
#685000
1!
b1000101 )
1*
b11111110000000010000000 J
b1 K
b11111100000001001111111 L
b111 M
b11111110000000010000000 N
b111111010000001011111111 O
#690000
0!
0*
#695000
1!
b1000110 )
1*
03
14
b111111010000001011111111 7
0G
1H
b111111010000001011111111 I
b111111100000000100000000 J
b0 K
b111111010000001011111111 L
b1000 M
b0 N
b111111010000001011111111 O
0P
#700000
0!
0*
#705000
1!
b1000111 )
1*
04
b111111010000001011111111 ;
b100 =
0H
#710000
0!
0*
#715000
1!
b111111100000000100000000 (
b1001000 )
1*
b111111100000000100000000 1
b101 =
#720000
0!
0*
#725000
1!
0&
1'
b1001001 )
1*
0/
10
b0 =
b1001001 [
#730000
0!
0*
#735000
1!
0'
b1001010 )
1*
00
#740000
0!
0*
#745000
1!
b1001011 )
1*
b0 V
b0 W
b0 X
b101010000110000 Y
#750000
0!
1#
b0 $
b0 %
0*
1,
b0 -
b0 .
b1001011 Z
#755000
1!
1&
b1001100 )
1*
1/
12
b0 5
b0 6
b0 8
b0 9
b1 =
1D
b0 E
b0 F
#760000
0!
0#
0*
0,
#765000
1!
b1001101 )
1*
02
13
0D
1G
b0 J
b0 L
b0 M
b0 N
b0 O
1P
#770000
0!
0*
#775000
1!
b1001110 )
1*
b1 M
#780000
0!
0*
#785000
1!
b1001111 )
1*
b10 M
#790000
0!
0*
#795000
1!
b1010000 )
1*
b11 M
#800000
0!
0*
#805000
1!
b1010001 )
1*
b100 M
#810000
0!
0*
#815000
1!
b1010010 )
1*
b101 M
#820000
0!
0*
#825000
1!
b1010011 )
1*
b110 M
#830000
0!
0*
#835000
1!
b1010100 )
1*
b111 M
#840000
0!
0*
#845000
1!
b1010101 )
1*
03
14
b0 7
0G
1H
b0 I
b1000 M
0P
#850000
0!
0*
#855000
1!
b1010110 )
1*
12
04
b0 :
b10 =
1D
0H
#860000
0!
0*
#865000
1!
b1010111 )
1*
02
13
0D
1G
b0 M
1P
#870000
0!
0*
#875000
1!
b1011000 )
1*
b1 M
#880000
0!
0*
#885000
1!
b1011001 )
1*
b10 M
#890000
0!
0*
#895000
1!
b1011010 )
1*
b11 M
#900000
0!
0*
#905000
1!
b1011011 )
1*
b100 M
#910000
0!
0*
#915000
1!
b1011100 )
1*
b101 M
#920000
0!
0*
#925000
1!
b1011101 )
1*
b110 M
#930000
0!
0*
#935000
1!
b1011110 )
1*
b111 M
#940000
0!
0*
#945000
1!
b1011111 )
1*
03
14
0G
1H
b1000 M
0P
#950000
0!
0*
#955000
1!
b1100000 )
1*
12
04
b0 <
b11 =
1D
0H
#960000
0!
0*
#965000
1!
b1100001 )
1*
02
13
0D
1G
b0 M
1P
#970000
0!
0*
#975000
1!
b1100010 )
1*
b1 M
#980000
0!
0*
#985000
1!
b1100011 )
1*
b10 M
#990000
0!
0*
#995000
1!
b1100100 )
1*
b11 M
#1000000
0!
0*
#1005000
1!
b1100101 )
1*
b100 M
#1010000
0!
0*
#1015000
1!
b1100110 )
1*
b101 M
#1020000
0!
0*
#1025000
1!
b1100111 )
1*
b110 M
#1030000
0!
0*
#1035000
1!
b1101000 )
1*
b111 M
#1040000
0!
0*
#1045000
1!
b1101001 )
1*
03
14
0G
1H
b1000 M
0P
#1050000
0!
0*
#1055000
1!
b1101010 )
1*
04
b0 ;
b100 =
0H
#1060000
0!
0*
#1065000
1!
b0 (
b1101011 )
1*
b0 1
b101 =
#1070000
0!
0*
#1075000
1!
0&
1'
b1101100 )
1*
0/
10
b0 =
b1101100 [
#1080000
0!
0*
#1085000
1!
0'
b1101101 )
1*
00
#1090000
0!
0*
#1095000
1!
b1101110 )
1*
b1 V
b1 X
b101010000110001 Y
#1100000
0!
1#
b1 $
0*
1,
b1 -
b1101110 Z
#1105000
1!
1&
b1101111 )
1*
1/
12
b1 5
b1 8
b1 =
1D
b1 E
#1110000
0!
0#
0*
0,
#1115000
1!
b1110000 )
1*
02
13
0D
1G
b1 J
b0 M
b0 N
1P
#1120000
0!
0*
#1125000
1!
b1110001 )
1*
b10 J
b1 M
b0 N
#1130000
0!
0*
#1135000
1!
b1110010 )
1*
b100 J
b10 M
b0 N
#1140000
0!
0*
#1145000
1!
b1110011 )
1*
b1000 J
b11 M
b0 N
#1150000
0!
0*
#1155000
1!
b1110100 )
1*
b10000 J
b100 M
b0 N
#1160000
0!
0*
#1165000
1!
b1110101 )
1*
b100000 J
b101 M
b0 N
#1170000
0!
0*
#1175000
1!
b1110110 )
1*
b1000000 J
b110 M
b0 N
#1180000
0!
0*
#1185000
1!
b1110111 )
1*
b10000000 J
b111 M
b0 N
#1190000
0!
0*
#1195000
1!
b1111000 )
1*
03
14
0G
1H
b100000000 J
b1000 M
b0 N
0P
#1200000
0!
0*
#1205000
1!
b1111001 )
1*
12
04
b1 6
b10 =
1D
b1 F
0H
#1210000
0!
0*
#1215000
1!
b1111010 )
1*
02
13
0D
1G
b1 J
b1 K
b0 M
b1 N
b1 O
1P
#1220000
0!
0*
#1225000
1!
b1111011 )
1*
b10 J
b0 K
b1 L
b1 M
b0 N
b1 O
#1230000
0!
0*
#1235000
1!
b1111100 )
1*
b100 J
b10 M
b0 N
#1240000
0!
0*
#1245000
1!
b1111101 )
1*
b1000 J
b11 M
b0 N
#1250000
0!
0*
#1255000
1!
b1111110 )
1*
b10000 J
b100 M
b0 N
#1260000
0!
0*
#1265000
1!
b1111111 )
1*
b100000 J
b101 M
b0 N
#1270000
0!
0*
#1275000
1!
b10000000 )
1*
b1000000 J
b110 M
b0 N
#1280000
0!
0*
#1285000
1!
b10000001 )
1*
b10000000 J
b111 M
b0 N
#1290000
0!
0*
#1295000
1!
b10000010 )
1*
03
14
b1 7
0G
1H
b1 I
b100000000 J
b1000 M
b0 N
0P
#1300000
0!
0*
#1305000
1!
b10000011 )
1*
12
04
b1 <
b11 =
1D
0H
#1310000
0!
0*
#1315000
1!
b10000100 )
1*
02
13
0D
1G
b1 J
b1 K
b0 L
b0 M
b1 N
1P
#1320000
0!
0*
#1325000
1!
b10000101 )
1*
b10 J
b0 K
b1 L
b1 M
b0 N
b1 O
#1330000
0!
0*
#1335000
1!
b10000110 )
1*
b100 J
b10 M
b0 N
#1340000
0!
0*
#1345000
1!
b10000111 )
1*
b1000 J
b11 M
b0 N
#1350000
0!
0*
#1355000
1!
b10001000 )
1*
b10000 J
b100 M
b0 N
#1360000
0!
0*
#1365000
1!
b10001001 )
1*
b100000 J
b101 M
b0 N
#1370000
0!
0*
#1375000
1!
b10001010 )
1*
b1000000 J
b110 M
b0 N
#1380000
0!
0*
#1385000
1!
b10001011 )
1*
b10000000 J
b111 M
b0 N
#1390000
0!
0*
#1395000
1!
b10001100 )
1*
03
14
0G
1H
b100000000 J
b1000 M
b0 N
0P
#1400000
0!
0*
#1405000
1!
b10001101 )
1*
04
b1 ;
b100 =
0H
#1410000
0!
0*
#1415000
1!
b1 (
b10001110 )
1*
b1 1
b101 =
#1420000
0!
0*
#1425000
1!
0&
1'
b10001111 )
1*
0/
10
b0 =
b10001111 [
#1430000
0!
0*
#1435000
1!
0'
b10010000 )
1*
00
#1440000
0!
0*
#1445000
1!
b10010001 )
1*
b0 V
b1 W
b0 X
b101010000110010 Y
#1450000
0!
1#
b0 $
b1 %
0*
1,
b0 -
b1 .
b10010001 Z
#1455000
1!
1&
b10010010 )
1*
1/
12
b0 5
b0 8
b1 9
b1 =
1D
b0 E
#1460000
0!
0#
0*
0,
#1465000
1!
b10010011 )
1*
02
13
0D
1G
b0 J
b1 K
b0 L
b0 M
b0 N
b0 O
1P
#1470000
0!
0*
#1475000
1!
b10010100 )
1*
b0 K
b1 M
b0 N
#1480000
0!
0*
#1485000
1!
b10010101 )
1*
b10 M
#1490000
0!
0*
#1495000
1!
b10010110 )
1*
b11 M
#1500000
0!
0*
#1505000
1!
b10010111 )
1*
b100 M
#1510000
0!
0*
#1515000
1!
b10011000 )
1*
b101 M
#1520000
0!
0*
#1525000
1!
b10011001 )
1*
b110 M
#1530000
0!
0*
#1535000
1!
b10011010 )
1*
b111 M
#1540000
0!
0*
#1545000
1!
b10011011 )
1*
03
14
b0 7
0G
1H
b0 I
b1000 M
0P
#1550000
0!
0*
#1555000
1!
b10011100 )
1*
12
04
b0 6
b10 =
1D
b0 F
0H
#1560000
0!
0*
#1565000
1!
b10011101 )
1*
02
13
0D
1G
b0 M
1P
#1570000
0!
0*
#1575000
1!
b10011110 )
1*
b1 M
#1580000
0!
0*
#1585000
1!
b10011111 )
1*
b10 M
#1590000
0!
0*
#1595000
1!
b10100000 )
1*
b11 M
#1600000
0!
0*
#1605000
1!
b10100001 )
1*
b100 M
#1610000
0!
0*
#1615000
1!
b10100010 )
1*
b101 M
#1620000
0!
0*
#1625000
1!
b10100011 )
1*
b110 M
#1630000
0!
0*
#1635000
1!
b10100100 )
1*
b111 M
#1640000
0!
0*
#1645000
1!
b10100101 )
1*
03
14
0G
1H
b1000 M
0P
#1650000
0!
0*
#1655000
1!
b10100110 )
1*
12
04
b0 <
b11 =
1D
0H
#1660000
0!
0*
#1665000
1!
b10100111 )
1*
02
13
0D
1G
b0 M
1P
#1670000
0!
0*
#1675000
1!
b10101000 )
1*
b1 M
#1680000
0!
0*
#1685000
1!
b10101001 )
1*
b10 M
#1690000
0!
0*
#1695000
1!
b10101010 )
1*
b11 M
#1700000
0!
0*
#1705000
1!
b10101011 )
1*
b100 M
#1710000
0!
0*
#1715000
1!
b10101100 )
1*
b101 M
#1720000
0!
0*
#1725000
1!
b10101101 )
1*
b110 M
#1730000
0!
0*
#1735000
1!
b10101110 )
1*
b111 M
#1740000
0!
0*
#1745000
1!
b10101111 )
1*
03
14
0G
1H
b1000 M
0P
#1750000
0!
0*
#1755000
1!
b10110000 )
1*
04
b0 ;
b100 =
0H
#1760000
0!
0*
#1765000
1!
b0 (
b10110001 )
1*
b0 1
b101 =
#1770000
0!
0*
#1775000
1!
0&
1'
b10110010 )
1*
0/
10
b0 =
b10110010 [
#1780000
0!
0*
#1785000
1!
0'
b10110011 )
1*
00
#1790000
0!
0*
#1795000
1!
b10110100 )
1*
b111 V
b101 W
b101111010 X
b101010000110011 Y
#1800000
0!
1#
b111 $
b101 %
0*
1,
b111 -
b101 .
b10110100 Z
#1805000
1!
1&
b10110101 )
1*
1/
12
b111 5
b101 6
b111 8
b101 9
b1 =
1D
b111 E
b101 F
#1810000
0!
0#
0*
0,
#1815000
1!
b10110110 )
1*
02
13
0D
1G
b111 J
b101 K
b0 M
b111 N
b111 O
1P
#1820000
0!
0*
#1825000
1!
b10110111 )
1*
b1110 J
b10 K
b111 L
b1 M
b0 N
b111 O
#1830000
0!
0*
#1835000
1!
b10111000 )
1*
b11100 J
b1 K
b10 M
b11100 N
b100011 O
#1840000
0!
0*
#1845000
1!
b10111001 )
1*
b111000 J
b0 K
b100011 L
b11 M
b0 N
b100011 O
#1850000
0!
0*
#1855000
1!
b10111010 )
1*
b1110000 J
b100 M
b0 N
#1860000
0!
0*
#1865000
1!
b10111011 )
1*
b11100000 J
b101 M
b0 N
#1870000
0!
0*
#1875000
1!
b10111100 )
1*
b111000000 J
b110 M
b0 N
#1880000
0!
0*
#1885000
1!
b10111101 )
1*
b1110000000 J
b111 M
b0 N
#1890000
0!
0*
#1895000
1!
b10111110 )
1*
03
14
b100011 7
0G
1H
b100011 I
b11100000000 J
b1000 M
b0 N
0P
#1900000
0!
0*
#1905000
1!
b10111111 )
1*
12
04
b111 6
b100011 :
b10 =
1D
b111 F
0H
#1910000
0!
0*
#1915000
1!
b11000000 )
1*
02
13
0D
1G
b111 J
b111 K
b0 L
b0 M
b111 N
b111 O
1P
#1920000
0!
0*
#1925000
1!
b11000001 )
1*
b1110 J
b11 K
b111 L
b1 M
b1110 N
b10101 O
#1930000
0!
0*
#1935000
1!
b11000010 )
1*
b11100 J
b1 K
b10101 L
b10 M
b11100 N
b110001 O
#1940000
0!
0*
#1945000
1!
b11000011 )
1*
b111000 J
b0 K
b110001 L
b11 M
b0 N
b110001 O
#1950000
0!
0*
#1955000
1!
b11000100 )
1*
b1110000 J
b100 M
b0 N
#1960000
0!
0*
#1965000
1!
b11000101 )
1*
b11100000 J
b101 M
b0 N
#1970000
0!
0*
#1975000
1!
b11000110 )
1*
b111000000 J
b110 M
b0 N
#1980000
0!
0*
#1985000
1!
b11000111 )
1*
b1110000000 J
b111 M
b0 N
#1990000
0!
0*
#1995000
1!
b11001000 )
1*
03
14
b110001 7
0G
1H
b110001 I
b11100000000 J
b1000 M
b0 N
0P
#2000000
0!
0*
#2005000
1!
b11001001 )
1*
12
04
b110001 5
b110001 <
b11 =
1D
b110001 E
0H
#2010000
0!
0*
#2015000
1!
b11001010 )
1*
02
13
0D
1G
b110001 J
b111 K
b0 L
b0 M
b110001 N
1P
#2020000
0!
0*
#2025000
1!
b11001011 )
1*
b1100010 J
b11 K
b110001 L
b1 M
b1100010 N
b10010011 O
#2030000
0!
0*
#2035000
1!
b11001100 )
1*
b11000100 J
b1 K
b10010011 L
b10 M
b11000100 N
b101010111 O
#2040000
0!
0*
#2045000
1!
b11001101 )
1*
b110001000 J
b0 K
b101010111 L
b11 M
b0 N
b101010111 O
#2050000
0!
0*
#2055000
1!
b11001110 )
1*
b1100010000 J
b100 M
b0 N
#2060000
0!
0*
#2065000
1!
b11001111 )
1*
b11000100000 J
b101 M
b0 N
#2070000
0!
0*
#2075000
1!
b11010000 )
1*
b110001000000 J
b110 M
b0 N
#2080000
0!
0*
#2085000
1!
b11010001 )
1*
b1100010000000 J
b111 M
b0 N
#2090000
0!
0*
#2095000
1!
b11010010 )
1*
03
14
b101010111 7
0G
1H
b101010111 I
b11000100000000 J
b1000 M
b0 N
0P
#2100000
0!
0*
#2105000
1!
b11010011 )
1*
04
b101010111 ;
b100 =
0H
#2110000
0!
0*
#2115000
1!
b101111010 (
b11010100 )
1*
b101111010 1
b101 =
#2120000
0!
0*
#2125000
1!
0&
1'
b11010101 )
1*
0/
10
b0 =
b11010101 [
#2130000
0!
0*
#2135000
1!
0'
b11010110 )
1*
00
#2140000
0!
0*
#2145000
1!
b11010111 )
1*
b1010 V
b1010 W
b10001001100 X
b101010000110100 Y
#2150000
0!
1#
b1010 $
b1010 %
0*
1,
b1010 -
b1010 .
b11010111 Z
#2155000
1!
1&
b11011000 )
1*
1/
12
b1010 5
b1010 6
b1010 8
b1010 9
b1 =
1D
b1010 E
b1010 F
#2160000
0!
0#
0*
0,
#2165000
1!
b11011001 )
1*
02
13
0D
1G
b1010 J
b1010 K
b0 L
b0 M
b0 N
b0 O
1P
#2170000
0!
0*
#2175000
1!
b11011010 )
1*
b10100 J
b101 K
b1 M
b10100 N
b10100 O
#2180000
0!
0*
#2185000
1!
b11011011 )
1*
b101000 J
b10 K
b10100 L
b10 M
b0 N
b10100 O
#2190000
0!
0*
#2195000
1!
b11011100 )
1*
b1010000 J
b1 K
b11 M
b1010000 N
b1100100 O
#2200000
0!
0*
#2205000
1!
b11011101 )
1*
b10100000 J
b0 K
b1100100 L
b100 M
b0 N
b1100100 O
#2210000
0!
0*
#2215000
1!
b11011110 )
1*
b101000000 J
b101 M
b0 N
#2220000
0!
0*
#2225000
1!
b11011111 )
1*
b1010000000 J
b110 M
b0 N
#2230000
0!
0*
#2235000
1!
b11100000 )
1*
b10100000000 J
b111 M
b0 N
#2240000
0!
0*
#2245000
1!
b11100001 )
1*
03
14
b1100100 7
0G
1H
b1100100 I
b101000000000 J
b1000 M
b0 N
0P
#2250000
0!
0*
#2255000
1!
b11100010 )
1*
12
04
b1100100 :
b10 =
1D
0H
#2260000
0!
0*
#2265000
1!
b11100011 )
1*
02
13
0D
1G
b1010 J
b1010 K
b0 L
b0 M
b0 N
b0 O
1P
#2270000
0!
0*
#2275000
1!
b11100100 )
1*
b10100 J
b101 K
b1 M
b10100 N
b10100 O
#2280000
0!
0*
#2285000
1!
b11100101 )
1*
b101000 J
b10 K
b10100 L
b10 M
b0 N
b10100 O
#2290000
0!
0*
#2295000
1!
b11100110 )
1*
b1010000 J
b1 K
b11 M
b1010000 N
b1100100 O
#2300000
0!
0*
#2305000
1!
b11100111 )
1*
b10100000 J
b0 K
b1100100 L
b100 M
b0 N
b1100100 O
#2310000
0!
0*
#2315000
1!
b11101000 )
1*
b101000000 J
b101 M
b0 N
#2320000
0!
0*
#2325000
1!
b11101001 )
1*
b1010000000 J
b110 M
b0 N
#2330000
0!
0*
#2335000
1!
b11101010 )
1*
b10100000000 J
b111 M
b0 N
#2340000
0!
0*
#2345000
1!
b11101011 )
1*
03
14
0G
1H
b101000000000 J
b1000 M
b0 N
0P
#2350000
0!
0*
#2355000
1!
b11101100 )
1*
12
04
b1100100 5
b1100100 <
b11 =
1D
b1100100 E
0H
#2360000
0!
0*
#2365000
1!
b11101101 )
1*
02
13
0D
1G
b1100100 J
b1010 K
b0 L
b0 M
b0 N
b0 O
1P
#2370000
0!
0*
#2375000
1!
b11101110 )
1*
b11001000 J
b101 K
b1 M
b11001000 N
b11001000 O
#2380000
0!
0*
#2385000
1!
b11101111 )
1*
b110010000 J
b10 K
b11001000 L
b10 M
b0 N
b11001000 O
#2390000
0!
0*
#2395000
1!
b11110000 )
1*
b1100100000 J
b1 K
b11 M
b1100100000 N
b1111101000 O
#2400000
0!
0*
#2405000
1!
b11110001 )
1*
b11001000000 J
b0 K
b1111101000 L
b100 M
b0 N
b1111101000 O
#2410000
0!
0*
#2415000
1!
b11110010 )
1*
b110010000000 J
b101 M
b0 N
#2420000
0!
0*
#2425000
1!
b11110011 )
1*
b1100100000000 J
b110 M
b0 N
#2430000
0!
0*
#2435000
1!
b11110100 )
1*
b11001000000000 J
b111 M
b0 N
#2440000
0!
0*
#2445000
1!
b11110101 )
1*
03
14
b1111101000 7
0G
1H
b1111101000 I
b110010000000000 J
b1000 M
b0 N
0P
#2450000
0!
0*
#2455000
1!
b11110110 )
1*
04
b1111101000 ;
b100 =
0H
#2460000
0!
0*
#2465000
1!
b10001001100 (
b11110111 )
1*
b10001001100 1
b101 =
#2470000
0!
0*
#2475000
1!
0&
1'
b11111000 )
1*
0/
10
b0 =
b11111000 [
#2480000
0!
0*
#2485000
1!
0'
b11111001 )
1*
00
#2490000
0!
0*
