lab2/vivado_lab2/vivado_lab2.sim/sim_1/behav/xsim/tb_ab_plus_a3.vcd
$date
   Tue Oct 21 13:34:21 2025
$end
$version
  2019.1
$end
$timescale
  1ps
$end
$scope module tb_ab_plus_a3 $end
$var reg 1 ! clk $end
$var reg 1 " rst $end
$var reg 1 # start $end
$var reg 8 $ a [7:0] $end
$var reg 8 % b [7:0] $end
$var wire 1 & busy $end
$var wire 1 ' valid $end
$var wire 24 ( y [23:0] $end
$scope module dut $end
$var wire 1 ) clk $end
$var wire 1 * rst $end
$var wire 1 + start $end
$var wire 8 , a [7:0] $end
$var wire 8 - b [7:0] $end
$var reg 1 . busy $end
$var reg 1 / valid $end
$var reg 24 0 y [23:0] $end
$var reg 1 1 m_start $end
$var wire 1 2 m_busy $end
$var wire 1 3 m_done $end
$var reg 16 4 m_A [15:0] $end
$var reg 8 5 m_B [7:0] $end
$var wire 24 6 m_Y [23:0] $end
$var reg 8 7 a_r [7:0] $end
$var reg 8 8 b_r [7:0] $end
$var reg 24 9 ab24 [23:0] $end
$var reg 24 : a3_24 [23:0] $end
$var reg 16 ; a2_16 [15:0] $end
$var reg 3 < st [2:0] $end
$var parameter 3 = S_IDLE [2:0] $end
$var parameter 3 > S_AB [2:0] $end
$var parameter 3 ? S_A2 [2:0] $end
$var parameter 3 @ S_A3 [2:0] $end
$var parameter 3 A S_ADD [2:0] $end
$var parameter 3 B S_DONE [2:0] $end
$scope module mul $end
$var wire 1 ) clk $end
$var wire 1 * rst $end
$var wire 1 C start $end
$var wire 16 D A [15:0] $end
$var wire 8 E B [7:0] $end
$var reg 1 F busy $end
$var reg 1 G done $end
$var reg 24 H Y [23:0] $end
$var reg 24 I a_ext [23:0] $end
$var reg 8 J b_reg [7:0] $end
$var reg 24 K acc [23:0] $end
$var reg 8 L cnt [7:0] $end
$var wire 24 M add_term [23:0] $end
$var wire 24 N acc_next [23:0] $end
$var reg 1 O state $end
$var parameter 32 P WA [31:0] $end
$var parameter 32 Q WB [31:0] $end
$var parameter 32 R WOUT [31:0] $end
$var parameter 0 S IDLE $end
$var parameter 0 T WORK $end
$upscope $end
$upscope $end
$scope task run_case $end
$var reg 8 U ta [7:0] $end
$var reg 8 V tb [7:0] $end
$var reg 24 W expected [23:0] $end
$var reg 256 X name [255:0] $end
$upscope $end
$upscope $end
$enddefinitions $end
#0
$dumpvars
0!
1"
0#
b0 $
b0 %
x&
x'
bx (
0)
1*
0+
b0 ,
b0 -
x.
x/
bx 0
x1
x2
x3
bx 4
bx 5
bx 6
bx 7
bx 8
bx 9
bx :
bx ;
bx <
b0 =
b1 >
b10 ?
b11 @
b100 A
b101 B
xC
bx D
bx E
xF
xG
bx H
bx I
bx J
bx K
bx L
bx M
bx N
xO
b10000 P
b1000 Q
b11000 R
0S
1T
bx U
bx V
bx W
bx X
$end
#5000
1!
0&
0'
b0 (
1)
0.
0/
b0 0
01
02
03
b0 4
b0 5
b0 6
b0 7
b0 8
b0 9
b0 :
b0 ;
b0 <
0C
b0 D
b0 E
0F
0G
b0 H
b0 I
b0 J
b0 K
b0 L
b0 M
b0 N
0O
#10000
0!
0)
#15000
1!
1)
#20000
0!
0)
#25000
1!
1)
#30000
0!
0)
#35000
1!
1)
#40000
0!
0)
#45000
1!
0"
1)
0*
b11 U
b100 V
b100111 W
b101001101001101010000010100110001001100 X
#50000
0!
1#
b11 $
b100 %
0)
1+
b11 ,
b100 -
#55000
1!
1&
1)
1.
11
b11 4
b100 5
b11 7
b100 8
b1 <
1C
b11 D
b100 E
#60000
0!
0#
0)
0+
#65000
1!
1)
01
12
0C
1F
b11 I
b100 J
b0 M
1O
#70000
0!
0)
#75000
1!
1)
b110 I
b10 J
b1 L
b0 M
#80000
0!
0)
#85000
1!
1)
b1100 I
b1 J
b10 L
b1100 M
b1100 N
#90000
0!
0)
#95000
1!
1)
b11000 I
b0 J
b1100 K
b11 L
b0 M
b1100 N
#100000
0!
0)
#105000
1!
1)
b110000 I
b100 L
b0 M
#110000
0!
0)
#115000
1!
1)
b1100000 I
b101 L
b0 M
#120000
0!
0)
#125000
1!
1)
b11000000 I
b110 L
b0 M
#130000
0!
0)
#135000
1!
1)
b110000000 I
b111 L
b0 M
#140000
0!
0)
#145000
1!
1)
02
13
b1100 6
0F
1G
b1100 H
b1100000000 I
b1000 L
b0 M
0O
#150000
0!
0)
#155000
1!
1)
11
03
b11 5
b1100 9
b10 <
1C
b11 E
0G
#160000
0!
0)
#165000
1!
1)
01
12
0C
1F
b11 I
b11 J
b0 K
b0 L
b11 M
b11 N
1O
#170000
0!
0)
#175000
1!
1)
b110 I
b1 J
b11 K
b1 L
b110 M
b1001 N
#180000
0!
0)
#185000
1!
1)
b1100 I
b0 J
b1001 K
b10 L
b0 M
b1001 N
#190000
0!
0)
#195000
1!
1)
b11000 I
b11 L
b0 M
#200000
0!
0)
#205000
1!
1)
b110000 I
b100 L
b0 M
#210000
0!
0)
#215000
1!
1)
b1100000 I
b101 L
b0 M
#220000
0!
0)
#225000
1!
1)
b11000000 I
b110 L
b0 M
#230000
0!
0)
#235000
1!
1)
b110000000 I
b111 L
b0 M
#240000
0!
0)
#245000
1!
1)
02
13
b1001 6
0F
1G
b1001 H
b1100000000 I
b1000 L
b0 M
0O
#250000
0!
0)
#255000
1!
1)
11
03
b1001 4
b1001 ;
b11 <
1C
b1001 D
0G
#260000
0!
0)
#265000
1!
1)
01
12
0C
1F
b1001 I
b11 J
b0 K
b0 L
b1001 M
1O
#270000
0!
0)
#275000
1!
1)
b10010 I
b1 J
b1001 K
b1 L
b10010 M
b11011 N
#280000
0!
0)
#285000
1!
1)
b100100 I
b0 J
b11011 K
b10 L
b0 M
b11011 N
#290000
0!
0)
#295000
1!
1)
b1001000 I
b11 L
b0 M
#300000
0!
0)
#305000
1!
1)
b10010000 I
b100 L
b0 M
#310000
0!
0)
#315000
1!
1)
b100100000 I
b101 L
b0 M
#320000
0!
0)
#325000
1!
1)
b1001000000 I
b110 L
b0 M
#330000
0!
0)
#335000
1!
1)
b10010000000 I
b111 L
b0 M
#340000
0!
0)
#345000
1!
1)
02
13
b11011 6
0F
1G
b11011 H
b100100000000 I
b1000 L
b0 M
0O
#350000
0!
0)
#355000
1!
1)
03
b11011 :
b100 <
0G
#360000
0!
0)
#365000
1!
b100111 (
1)
b100111 0
b101 <
#370000
0!
0)
#375000
1!
0&
1'
1)
0.
1/
b0 <
#380000
0!
0)
#385000
1!
0'
1)
0/
#390000
0!
0)
#395000
1!
1)
#400000
0!
0)
#405000
1!
1)
#410000
0!
0)
#415000
1!
1)
b11111111 U
b11111111 V
b111111100000000100000000 W
b10011010100000101011000 X
#420000
0!
1#
b11111111 $
b11111111 %
0)
1+
b11111111 ,
b11111111 -
#425000
1!
1&
1)
1.
11
b11111111 4
b11111111 5
b11111111 7
b11111111 8
b1 <
1C
b11111111 D
b11111111 E
#430000
0!
0#
0)
0+
#435000
1!
1)
01
12
0C
1F
b11111111 I
b11111111 J
b0 K
b0 L
b11111111 M
b11111111 N
1O
#440000
0!
0)
#445000
1!
1)
b111111110 I
b1111111 J
b11111111 K
b1 L
b111111110 M
b1011111101 N
#450000
0!
0)
#455000
1!
1)
b1111111100 I
b111111 J
b1011111101 K
b10 L
b1111111100 M
b11011111001 N
#460000
0!
0)
#465000
1!
1)
b11111111000 I
b11111 J
b11011111001 K
b11 L
b11111111000 M
b111011110001 N
#470000
0!
0)
#475000
1!
1)
b111111110000 I
b1111 J
b111011110001 K
b100 L
b111111110000 M
b1111011100001 N
#480000
0!
0)
#485000
1!
1)
b1111111100000 I
b111 J
b1111011100001 K
b101 L
b1111111100000 M
b11111011000001 N
#490000
0!
0)
#495000
1!
1)
b11111111000000 I
b11 J
b11111011000001 K
b110 L
b11111111000000 M
b111111010000001 N
#500000
0!
0)
#505000
1!
1)
b111111110000000 I
b1 J
b111111010000001 K
b111 L
b111111110000000 M
b1111111000000001 N
#510000
0!
0)
#515000
1!
1)
02
13
b1111111000000001 6
0F
1G
b1111111000000001 H
b1111111100000000 I
b0 J
b1111111000000001 K
b1000 L
b0 M
b1111111000000001 N
0O
#520000
0!
0)
#525000
1!
1)
11
03
b1111111000000001 9
b10 <
1C
0G
#530000
0!
0)
#535000
1!
1)
01
12
0C
1F
b11111111 I
b11111111 J
b0 K
b0 L
b11111111 M
b11111111 N
1O
#540000
0!
0)
#545000
1!
1)
b111111110 I
b1111111 J
b11111111 K
b1 L
b111111110 M
b1011111101 N
#550000
0!
0)
#555000
1!
1)
b1111111100 I
b111111 J
b1011111101 K
b10 L
b1111111100 M
b11011111001 N
#560000
0!
0)
#565000
1!
1)
b11111111000 I
b11111 J
b11011111001 K
b11 L
b11111111000 M
b111011110001 N
#570000
0!
0)
#575000
1!
1)
b111111110000 I
b1111 J
b111011110001 K
b100 L
b111111110000 M
b1111011100001 N
#580000
0!
0)
#585000
1!
1)
b1111111100000 I
b111 J
b1111011100001 K
b101 L
b1111111100000 M
b11111011000001 N
#590000
0!
0)
#595000
1!
1)
b11111111000000 I
b11 J
b11111011000001 K
b110 L
b11111111000000 M
b111111010000001 N
#600000
0!
0)
#605000
1!
1)
b111111110000000 I
b1 J
b111111010000001 K
b111 L
b111111110000000 M
b1111111000000001 N
#610000
0!
0)
#615000
1!
1)
02
13
0F
1G
b1111111100000000 I
b0 J
b1111111000000001 K
b1000 L
b0 M
b1111111000000001 N
0O
#620000
0!
0)
#625000
1!
1)
11
03
b1111111000000001 4
b1111111000000001 ;
b11 <
1C
b1111111000000001 D
0G
#630000
0!
0)
#635000
1!
1)
01
12
0C
1F
b1111111000000001 I
b11111111 J
b0 K
b0 L
b1111111000000001 M
1O
#640000
0!
0)
#645000
1!
1)
b11111110000000010 I
b1111111 J
b1111111000000001 K
b1 L
b11111110000000010 M
b101111101000000011 N
#650000
0!
0)
#655000
1!
1)
b111111100000000100 I
b111111 J
b101111101000000011 K
b10 L
b111111100000000100 M
b1101111001000000111 N
#660000
0!
0)
#665000
1!
1)
b1111111000000001000 I
b11111 J
b1101111001000000111 K
b11 L
b1111111000000001000 M
b11101110001000001111 N
#670000
0!
0)
#675000
1!
1)
b11111110000000010000 I
b1111 J
b11101110001000001111 K
b100 L
b11111110000000010000 M
b111101100001000011111 N
#680000
0!
0)
#685000
1!
1)
b111111100000000100000 I
b111 J
b111101100001000011111 K
b101 L
b111111100000000100000 M
b1111101000001000111111 N
#690000
0!
0)
#695000
1!
1)
b1111111000000001000000 I
b11 J
b1111101000001000111111 K
b110 L
b1111111000000001000000 M
b11111100000001001111111 N
#700000
0!
0)
#705000
1!
1)
b11111110000000010000000 I
b1 J
b11111100000001001111111 K
b111 L
b11111110000000010000000 M
b111111010000001011111111 N
#710000
0!
0)
#715000
1!
1)
02
13
b111111010000001011111111 6
0F
1G
b111111010000001011111111 H
b111111100000000100000000 I
b0 J
b111111010000001011111111 K
b1000 L
b0 M
b111111010000001011111111 N
0O
#720000
0!
0)
#725000
1!
1)
03
b111111010000001011111111 :
b100 <
0G
#730000
0!
0)
#735000
1!
b111111100000000100000000 (
1)
b111111100000000100000000 0
b101 <
#740000
0!
0)
#745000
1!
0&
1'
1)
0.
1/
b0 <
#750000
0!
0)
#755000
1!
0'
1)
0/
#760000
0!
0)
#765000
1!
1)
#770000
0!
0)
#775000
1!
1)
#780000
0!
0)
#785000
1!
1)
b0 U
b0 V
b0 W
b101010000110000 X
#790000
0!
1#
b0 $
b0 %
0)
1+
b0 ,
b0 -
#795000
1!
1&
1)
1.
11
b0 4
b0 5
b0 7
b0 8
b1 <
1C
b0 D
b0 E
#800000
0!
0#
0)
0+
#805000
1!
1)
01
12
0C
1F
b0 I
b0 K
b0 L
b0 M
b0 N
1O
#810000
0!
0)
#815000
1!
1)
b1 L
#820000
0!
0)
#825000
1!
1)
b10 L
#830000
0!
0)
#835000
1!
1)
b11 L
#840000
0!
0)
#845000
1!
1)
b100 L
#850000
0!
0)
#855000
1!
1)
b101 L
#860000
0!
0)
#865000
1!
1)
b110 L
#870000
0!
0)
#875000
1!
1)
b111 L
#880000
0!
0)
#885000
1!
1)
02
13
b0 6
0F
1G
b0 H
b1000 L
0O
#890000
0!
0)
#895000
1!
1)
11
03
b0 9
b10 <
1C
0G
#900000
0!
0)
#905000
1!
1)
01
12
0C
1F
b0 L
1O
#910000
0!
0)
#915000
1!
1)
b1 L
#920000
0!
0)
#925000
1!
1)
b10 L
#930000
0!
0)
#935000
1!
1)
b11 L
#940000
0!
0)
#945000
1!
1)
b100 L
#950000
0!
0)
#955000
1!
1)
b101 L
#960000
0!
0)
#965000
1!
1)
b110 L
#970000
0!
0)
#975000
1!
1)
b111 L
#980000
0!
0)
#985000
1!
1)
02
13
0F
1G
b1000 L
0O
#990000
0!
0)
#995000
1!
1)
11
03
b0 ;
b11 <
1C
0G
#1000000
0!
0)
#1005000
1!
1)
01
12
0C
1F
b0 L
1O
#1010000
0!
0)
#1015000
1!
1)
b1 L
#1020000
0!
0)
#1025000
1!
1)
b10 L
#1030000
0!
0)
#1035000
1!
1)
b11 L
#1040000
0!
0)
#1045000
1!
1)
b100 L
#1050000
0!
0)
#1055000
1!
1)
b101 L
#1060000
0!
0)
#1065000
1!
1)
b110 L
#1070000
0!
0)
#1075000
1!
1)
b111 L
#1080000
0!
0)
#1085000
1!
1)
02
13
0F
1G
b1000 L
0O
#1090000
0!
0)
#1095000
1!
1)
03
b0 :
b100 <
0G
#1100000
0!
0)
#1105000
1!
b0 (
1)
b0 0
b101 <
#1110000
0!
0)
#1115000
1!
0&
1'
1)
0.
1/
b0 <
#1120000
0!
0)
#1125000
1!
0'
1)
0/
#1130000
0!
0)
#1135000
1!
1)
#1140000
0!
0)
#1145000
1!
1)
#1150000
0!
0)
#1155000
1!
1)
b1 U
b1 W
b101010000110001 X
#1160000
0!
1#
b1 $
0)
1+
b1 ,
#1165000
1!
1&
1)
1.
11
b1 4
b1 7
b1 <
1C
b1 D
#1170000
0!
0#
0)
0+
#1175000
1!
1)
01
12
0C
1F
b1 I
b0 L
b0 M
1O
#1180000
0!
0)
#1185000
1!
1)
b10 I
b1 L
b0 M
#1190000
0!
0)
#1195000
1!
1)
b100 I
b10 L
b0 M
#1200000
0!
0)
#1205000
1!
1)
b1000 I
b11 L
b0 M
#1210000
0!
0)
#1215000
1!
1)
b10000 I
b100 L
b0 M
#1220000
0!
0)
#1225000
1!
1)
b100000 I
b101 L
b0 M
#1230000
0!
0)
#1235000
1!
1)
b1000000 I
b110 L
b0 M
#1240000
0!
0)
#1245000
1!
1)
b10000000 I
b111 L
b0 M
#1250000
0!
0)
#1255000
1!
1)
02
13
0F
1G
b100000000 I
b1000 L
b0 M
0O
#1260000
0!
0)
#1265000
1!
1)
11
03
b1 5
b10 <
1C
b1 E
0G
#1270000
0!
0)
#1275000
1!
1)
01
12
0C
1F
b1 I
b1 J
b0 L
b1 M
b1 N
1O
#1280000
0!
0)
#1285000
1!
1)
b10 I
b0 J
b1 K
b1 L
b0 M
b1 N
#1290000
0!
0)
#1295000
1!
1)
b100 I
b10 L
b0 M
#1300000
0!
0)
#1305000
1!
1)
b1000 I
b11 L
b0 M
#1310000
0!
0)
#1315000
1!
1)
b10000 I
b100 L
b0 M
#1320000
0!
0)
#1325000
1!
1)
b100000 I
b101 L
b0 M
#1330000
0!
0)
#1335000
1!
1)
b1000000 I
b110 L
b0 M
#1340000
0!
0)
#1345000
1!
1)
b10000000 I
b111 L
b0 M
#1350000
0!
0)
#1355000
1!
1)
02
13
b1 6
0F
1G
b1 H
b100000000 I
b1000 L
b0 M
0O
#1360000
0!
0)
#1365000
1!
1)
11
03
b1 ;
b11 <
1C
0G
#1370000
0!
0)
#1375000
1!
1)
01
12
0C
1F
b1 I
b1 J
b0 K
b0 L
b1 M
1O
#1380000
0!
0)
#1385000
1!
1)
b10 I
b0 J
b1 K
b1 L
b0 M
b1 N
#1390000
0!
0)
#1395000
1!
1)
b100 I
b10 L
b0 M
#1400000
0!
0)
#1405000
1!
1)
b1000 I
b11 L
b0 M
#1410000
0!
0)
#1415000
1!
1)
b10000 I
b100 L
b0 M
#1420000
0!
0)
#1425000
1!
1)
b100000 I
b101 L
b0 M
#1430000
0!
0)
#1435000
1!
1)
b1000000 I
b110 L
b0 M
#1440000
0!
0)
#1445000
1!
1)
b10000000 I
b111 L
b0 M
#1450000
0!
0)
#1455000
1!
1)
02
13
0F
1G
b100000000 I
b1000 L
b0 M
0O
#1460000
0!
0)
#1465000
1!
1)
03
b1 :
b100 <
0G
#1470000
0!
0)
#1475000
1!
b1 (
1)
b1 0
b101 <
#1480000
0!
0)
#1485000
1!
0&
1'
1)
0.
1/
b0 <
#1490000
0!
0)
#1495000
1!
0'
1)
0/
#1500000
0!
0)
#1505000
1!
1)
#1510000
0!
0)
#1515000
1!
1)
#1520000
0!
0)
#1525000
1!
1)
b0 U
b1 V
b0 W
b101010000110010 X
#1530000
0!
1#
b0 $
b1 %
0)
1+
b0 ,
b1 -
#1535000
1!
1&
1)
1.
11
b0 4
b0 7
b1 8
b1 <
1C
b0 D
#1540000
0!
0#
0)
0+
#1545000
1!
1)
01
12
0C
1F
b0 I
b1 J
b0 K
b0 L
b0 M
b0 N
1O
#1550000
0!
0)
#1555000
1!
1)
b0 J
b1 L
b0 M
#1560000
0!
0)
#1565000
1!
1)
b10 L
#1570000
0!
0)
#1575000
1!
1)
b11 L
#1580000
0!
0)
#1585000
1!
1)
b100 L
#1590000
0!
0)
#1595000
1!
1)
b101 L
#1600000
0!
0)
#1605000
1!
1)
b110 L
#1610000
0!
0)
#1615000
1!
1)
b111 L
#1620000
0!
0)
#1625000
1!
1)
02
13
b0 6
0F
1G
b0 H
b1000 L
0O
#1630000
0!
0)
#1635000
1!
1)
11
03
b0 5
b10 <
1C
b0 E
0G
#1640000
0!
0)
#1645000
1!
1)
01
12
0C
1F
b0 L
1O
#1650000
0!
0)
#1655000
1!
1)
b1 L
#1660000
0!
0)
#1665000
1!
1)
b10 L
#1670000
0!
0)
#1675000
1!
1)
b11 L
#1680000
0!
0)
#1685000
1!
1)
b100 L
#1690000
0!
0)
#1695000
1!
1)
b101 L
#1700000
0!
0)
#1705000
1!
1)
b110 L
#1710000
0!
0)
#1715000
1!
1)
b111 L
#1720000
0!
0)
#1725000
1!
1)
02
13
0F
1G
b1000 L
0O
#1730000
0!
0)
#1735000
1!
1)
11
03
b0 ;
b11 <
1C
0G
#1740000
0!
0)
#1745000
1!
1)
01
12
0C
1F
b0 L
1O
#1750000
0!
0)
#1755000
1!
1)
b1 L
#1760000
0!
0)
#1765000
1!
1)
b10 L
#1770000
0!
0)
#1775000
1!
1)
b11 L
#1780000
0!
0)
#1785000
1!
1)
b100 L
#1790000
0!
0)
#1795000
1!
1)
b101 L
#1800000
0!
0)
#1805000
1!
1)
b110 L
#1810000
0!
0)
#1815000
1!
1)
b111 L
#1820000
0!
0)
#1825000
1!
1)
02
13
0F
1G
b1000 L
0O
#1830000
0!
0)
#1835000
1!
1)
03
b0 :
b100 <
0G
#1840000
0!
0)
#1845000
1!
b0 (
1)
b0 0
b101 <
#1850000
0!
0)
#1855000
1!
0&
1'
1)
0.
1/
b0 <
#1860000
0!
0)
#1865000
1!
0'
1)
0/
#1870000
0!
0)
#1875000
1!
1)
#1880000
0!
0)
#1885000
1!
1)
#1890000
0!
0)
#1895000
1!
1)
b111 U
b101 V
b101111010 W
b101010000110011 X
#1900000
0!
1#
b111 $
b101 %
0)
1+
b111 ,
b101 -
#1905000
1!
1&
1)
1.
11
b111 4
b101 5
b111 7
b101 8
b1 <
1C
b111 D
b101 E
#1910000
0!
0#
0)
0+
#1915000
1!
1)
01
12
0C
1F
b111 I
b101 J
b0 L
b111 M
b111 N
1O
#1920000
0!
0)
#1925000
1!
1)
b1110 I
b10 J
b111 K
b1 L
b0 M
b111 N
#1930000
0!
0)
#1935000
1!
1)
b11100 I
b1 J
b10 L
b11100 M
b100011 N
#1940000
0!
0)
#1945000
1!
1)
b111000 I
b0 J
b100011 K
b11 L
b0 M
b100011 N
#1950000
0!
0)
#1955000
1!
1)
b1110000 I
b100 L
b0 M
#1960000
0!
0)
#1965000
1!
1)
b11100000 I
b101 L
b0 M
#1970000
0!
0)
#1975000
1!
1)
b111000000 I
b110 L
b0 M
#1980000
0!
0)
#1985000
1!
1)
b1110000000 I
b111 L
b0 M
#1990000
0!
0)
#1995000
1!
1)
02
13
b100011 6
0F
1G
b100011 H
b11100000000 I
b1000 L
b0 M
0O
#2000000
0!
0)
#2005000
1!
1)
11
03
b111 5
b100011 9
b10 <
1C
b111 E
0G
#2010000
0!
0)
#2015000
1!
1)
01
12
0C
1F
b111 I
b111 J
b0 K
b0 L
b111 M
b111 N
1O
#2020000
0!
0)
#2025000
1!
1)
b1110 I
b11 J
b111 K
b1 L
b1110 M
b10101 N
#2030000
0!
0)
#2035000
1!
1)
b11100 I
b1 J
b10101 K
b10 L
b11100 M
b110001 N
#2040000
0!
0)
#2045000
1!
1)
b111000 I
b0 J
b110001 K
b11 L
b0 M
b110001 N
#2050000
0!
0)
#2055000
1!
1)
b1110000 I
b100 L
b0 M
#2060000
0!
0)
#2065000
1!
1)
b11100000 I
b101 L
b0 M
#2070000
0!
0)
#2075000
1!
1)
b111000000 I
b110 L
b0 M
#2080000
0!
0)
#2085000
1!
1)
b1110000000 I
b111 L
b0 M
#2090000
0!
0)
#2095000
1!
1)
02
13
b110001 6
0F
1G
b110001 H
b11100000000 I
b1000 L
b0 M
0O
#2100000
0!
0)
#2105000
1!
1)
11
03
b110001 4
b110001 ;
b11 <
1C
b110001 D
0G
#2110000
0!
0)
#2115000
1!
1)
01
12
0C
1F
b110001 I
b111 J
b0 K
b0 L
b110001 M
1O
#2120000
0!
0)
#2125000
1!
1)
b1100010 I
b11 J
b110001 K
b1 L
b1100010 M
b10010011 N
#2130000
0!
0)
#2135000
1!
1)
b11000100 I
b1 J
b10010011 K
b10 L
b11000100 M
b101010111 N
#2140000
0!
0)
#2145000
1!
1)
b110001000 I
b0 J
b101010111 K
b11 L
b0 M
b101010111 N
#2150000
0!
0)
#2155000
1!
1)
b1100010000 I
b100 L
b0 M
#2160000
0!
0)
#2165000
1!
1)
b11000100000 I
b101 L
b0 M
#2170000
0!
0)
#2175000
1!
1)
b110001000000 I
b110 L
b0 M
#2180000
0!
0)
#2185000
1!
1)
b1100010000000 I
b111 L
b0 M
#2190000
0!
0)
#2195000
1!
1)
02
13
b101010111 6
0F
1G
b101010111 H
b11000100000000 I
b1000 L
b0 M
0O
#2200000
0!
0)
#2205000
1!
1)
03
b101010111 :
b100 <
0G
#2210000
0!
0)
#2215000
1!
b101111010 (
1)
b101111010 0
b101 <
#2220000
0!
0)
#2225000
1!
0&
1'
1)
0.
1/
b0 <
#2230000
0!
0)
#2235000
1!
0'
1)
0/
#2240000
0!
0)
#2245000
1!
1)
#2250000
0!
0)
#2255000
1!
1)
#2260000
0!
0)
#2265000
1!
1)
b1010 U
b1010 V
b10001001100 W
b101010000110100 X
#2270000
0!
1#
b1010 $
b1010 %
0)
1+
b1010 ,
b1010 -
#2275000
1!
1&
1)
1.
11
b1010 4
b1010 5
b1010 7
b1010 8
b1 <
1C
b1010 D
b1010 E
#2280000
0!
0#
0)
0+
#2285000
1!
1)
01
12
0C
1F
b1010 I
b1010 J
b0 K
b0 L
b0 M
b0 N
1O
#2290000
0!
0)
#2295000
1!
1)
b10100 I
b101 J
b1 L
b10100 M
b10100 N
#2300000
0!
0)
#2305000
1!
1)
b101000 I
b10 J
b10100 K
b10 L
b0 M
b10100 N
#2310000
0!
0)
#2315000
1!
1)
b1010000 I
b1 J
b11 L
b1010000 M
b1100100 N
#2320000
0!
0)
#2325000
1!
1)
b10100000 I
b0 J
b1100100 K
b100 L
b0 M
b1100100 N
#2330000
0!
0)
#2335000
1!
1)
b101000000 I
b101 L
b0 M
#2340000
0!
0)
#2345000
1!
1)
b1010000000 I
b110 L
b0 M
#2350000
0!
0)
#2355000
1!
1)
b10100000000 I
b111 L
b0 M
#2360000
0!
0)
#2365000
1!
1)
02
13
b1100100 6
0F
1G
b1100100 H
b101000000000 I
b1000 L
b0 M
0O
#2370000
0!
0)
#2375000
1!
1)
11
03
b1100100 9
b10 <
1C
0G
#2380000
0!
0)
#2385000
1!
1)
01
12
0C
1F
b1010 I
b1010 J
b0 K
b0 L
b0 M
b0 N
1O
#2390000
0!
0)
#2395000
1!
1)
b10100 I
b101 J
b1 L
b10100 M
b10100 N
#2400000
0!
0)
#2405000
1!
1)
b101000 I
b10 J
b10100 K
b10 L
b0 M
b10100 N
#2410000
0!
0)
#2415000
1!
1)
b1010000 I
b1 J
b11 L
b1010000 M
b1100100 N
#2420000
0!
0)
#2425000
1!
1)
b10100000 I
b0 J
b1100100 K
b100 L
b0 M
b1100100 N
#2430000
0!
0)
#2435000
1!
1)
b101000000 I
b101 L
b0 M
#2440000
0!
0)
#2445000
1!
1)
b1010000000 I
b110 L
b0 M
#2450000
0!
0)
#2455000
1!
1)
b10100000000 I
b111 L
b0 M
#2460000
0!
0)
#2465000
1!
1)
02
13
0F
1G
b101000000000 I
b1000 L
b0 M
0O
#2470000
0!
0)
#2475000
1!
1)
11
03
b1100100 4
b1100100 ;
b11 <
1C
b1100100 D
0G
#2480000
0!
0)
#2485000
1!
1)
01
12
0C
1F
b1100100 I
b1010 J
b0 K
b0 L
b0 M
b0 N
1O
#2490000
0!
0)
#2495000
1!
1)
b11001000 I
b101 J
b1 L
b11001000 M
b11001000 N
#2500000
0!
0)
#2505000
1!
1)
b110010000 I
b10 J
b11001000 K
b10 L
b0 M
b11001000 N
#2510000
0!
0)
#2515000
1!
1)
b1100100000 I
b1 J
b11 L
b1100100000 M
b1111101000 N
#2520000
0!
0)
#2525000
1!
1)
b11001000000 I
b0 J
b1111101000 K
b100 L
b0 M
b1111101000 N
#2530000
0!
0)
#2535000
1!
1)
b110010000000 I
b101 L
b0 M
#2540000
0!
0)
#2545000
1!
1)
b1100100000000 I
b110 L
b0 M
#2550000
0!
0)
#2555000
1!
1)
b11001000000000 I
b111 L
b0 M
#2560000
0!
0)
#2565000
1!
1)
02
13
b1111101000 6
0F
1G
b1111101000 H
b110010000000000 I
b1000 L
b0 M
0O
#2570000
0!
0)
#2575000
1!
1)
03
b1111101000 :
b100 <
0G
#2580000
0!
0)
#2585000
1!
b10001001100 (
1)
b10001001100 0
b101 <
#2590000
0!
0)
#2595000
1!
0&
1'
1)
0.
1/
b0 <
#2600000
0!
0)
#2605000
1!
0'
1)
0/
#2610000
0!
0)
#2615000
1!
1)
#2620000
0!
0)
#2625000
1!
1)
#2630000
0!
0)
#2635000
1!
1)
b1111 U
b10 V
b110101001101 W
b101010000110101 X
#2640000
0!
1#
b1111 $
b10 %
0)
1+
b1111 ,
b10 -
#2645000
1!
1&
1)
1.
11
b1111 4
b10 5
b1111 7
b10 8
b1 <
1C
b1111 D
b10 E
#2650000
0!
0#
0)
0+
#2655000
1!
1)
01
12
0C
1F
b1111 I
b10 J
b0 K
b0 L
b0 M
b0 N
1O
#2660000
0!
0)
#2665000
1!
1)
b11110 I
b1 J
b1 L
b11110 M
b11110 N
#2670000
0!
0)
#2675000
1!
1)
b111100 I
b0 J
b11110 K
b10 L
b0 M
b11110 N
#2680000
0!
0)
#2685000
1!
1)
b1111000 I
b11 L
b0 M
#2690000
0!
0)
#2695000
1!
1)
b11110000 I
b100 L
b0 M
#2700000
0!
0)
#2705000
1!
1)
b111100000 I
b101 L
b0 M
#2710000
0!
0)
#2715000
1!
1)
b1111000000 I
b110 L
b0 M
#2720000
0!
0)
#2725000
1!
1)
b11110000000 I
b111 L
b0 M
#2730000
0!
0)
#2735000
1!
1)
02
13
b11110 6
0F
1G
b11110 H
b111100000000 I
b1000 L
b0 M
0O
#2740000
0!
0)
#2745000
1!
1)
11
03
b1111 5
b11110 9
b10 <
1C
b1111 E
0G
#2750000
0!
0)
#2755000
1!
1)
01
12
0C
1F
b1111 I
b1111 J
b0 K
b0 L
b1111 M
b1111 N
1O
#2760000
0!
0)
#2765000
1!
1)
b11110 I
b111 J
b1111 K
b1 L
b11110 M
b101101 N
#2770000
0!
0)
#2775000
1!
1)
b111100 I
b11 J
b101101 K
b10 L
b111100 M
b1101001 N
#2780000
0!
0)
#2785000
1!
1)
b1111000 I
b1 J
b1101001 K
b11 L
b1111000 M
b11100001 N
#2790000
0!
0)
#2795000
1!
1)
b11110000 I
b0 J
b11100001 K
b100 L
b0 M
b11100001 N
#2800000
0!
0)
#2805000
1!
1)
b111100000 I
b101 L
b0 M
#2810000
0!
0)
#2815000
1!
1)
b1111000000 I
b110 L
b0 M
#2820000
0!
0)
#2825000
1!
1)
b11110000000 I
b111 L
b0 M
#2830000
0!
0)
#2835000
1!
1)
02
13
b11100001 6
0F
1G
b11100001 H
b111100000000 I
b1000 L
b0 M
0O
#2840000
0!
0)
#2845000
1!
1)
11
03
b11100001 4
b11100001 ;
b11 <
1C
b11100001 D
0G
#2850000
0!
0)
#2855000
1!
1)
01
12
0C
1F
b11100001 I
b1111 J
b0 K
b0 L
b11100001 M
1O
#2860000
0!
0)
#2865000
1!
1)
b111000010 I
b111 J
b11100001 K
b1 L
b111000010 M
b1010100011 N
#2870000
0!
0)
#2875000
1!
1)
b1110000100 I
b11 J
b1010100011 K
b10 L
b1110000100 M
b11000100111 N
#2880000
0!
0)
#2885000
1!
1)
b11100001000 I
b1 J
b11000100111 K
b11 L
b11100001000 M
b110100101111 N
#2890000
0!
0)
#2895000
1!
1)
b111000010000 I
b0 J
b110100101111 K
b100 L
b0 M
b110100101111 N
#2900000
0!
0)
#2905000
1!
1)
b1110000100000 I
b101 L
b0 M
#2910000
0!
0)
